0 0 159 0 0
4 0 154 0 0
7 0 146 0 0
7 0 140 0 0
4 0 126 0 1
4 0 20 0 1
0 0 11 0 1
4 0 11 1 1
4 0 11 1 1
0 0 13 1 1
4 0 43 0 1
0 0 43 0 1
0 0 42 0 1
0 0 42 0 1
0 0 156 0 0
0 0 155 0 0
0 0 156 0 0
0 0 156 0 0
0 0 155 0 0
0 0 156 0 0
0 0 156 0 0
0 0 156 0 0
0 0 156 0 0
4 0 158 0 0
0 0 182 0 0
0 0 17 1 1
0 0 233 0 0
0 -7 68 0 0
0 -7 1 0 0
4 0 0 0 0
0 -4 0 1 0
-14 -4 0 0 0
0 -7 0 0 0
32 0 0 0 1
0 -4 0 0 0
0 -5 0 0 0
0 -5 7 0 0
0 -5 177 0 0
0 0 0 0 0
0 -5 48 0 0
0 -5 0 0 0
0 0 0 0 0
0 0 0 0 0
0 7 4 0 0
0 4 105 0 0
0 0 76 0 0
0 5 259 0 0
0 0 0 0 0
0 0 0 0 0
0 5 1 0 0
0 4 0 0 0
0 0 0 0 0
0 0 0 0 0
0 2 0 0 0
0 0 0 0 0
4 0 0 0 1
0 2 0 0 0
-4 0 0 0 0
0 -4 0 0 0
0 -4 4 0 0
0 -2 1 0 0
0 -4 0 0 0
0 0 0 0 1
0 0 0 0 0
0 -4 0 0 0
0 -4 11 0 0
0 -4 59 1 0
0 -4 222 0 0
0 2 1 0 1
0 -4 87 0 0
0 -2 61 0 0
0 -2 1 1 1
0 -4 0 1 0
0 0 0 1 0
0 -4 10 1 0
0 0 0 0 0
0 0 1 0 0
0 -2 146 1 0
0 0 10 0 0
0 0 80 0 0
0 -4 1 0 0
0 0 0 0 1
0 -2 0 0 0
0 0 0 0 0
0 0 0 1 0
0 0 0 1 0
0 0 0 0 0
0 2 0 0 0
0 -2 0 1 0
0 -2 12 1 0
0 -4 204 1 0
0 0 187 0 0
0 0 103 0 0
0 -4 104 0 0
0 -4 10 0 0
0 -4 0 1 0
0 -4 0 1 0
0 -4 1 1 0
0 -4 6 1 0
0 0 0 0 0
0 0 153 1 0
0 -4 55 0 0
0 0 21 0 0
0 -2 0 0 0
0 0 0 0 0
0 0 0 0 0
0 -4 0 0 0
0 -4 0 0 0
4 2 0 1 0
0 0 0 1 0
0 0 0 0 0
0 -2 3 1 0
0 -4 25 1 0
0 -2 222 0 0
0 2 134 0 0
0 -2 98 0 0
0 -4 102 0 0
0 -4 5 0 0
4 -4 0 1 0
4 -4 1 1 0
0 0 0 1 0
0 0 24 1 0
0 0 0 0 0
0 0 149 1 0
0 -4 43 0 0
0 2 12 0 0
0 -2 0 0 0
0 -4 0 0 0
0 0 1 0 0
0 -4 1 0 0
0 -2 0 1 0
0 0 0 1 0
0 -4 0 1 0
0 0 2 0 0
0 2 0 1 0
0 0 0 1 0
0 -4 128 1 0
0 0 228 0 0
0 2 16 0 0
0 -4 81 0 0
0 -4 54 0 0
0 -4 3 1 0
0 0 0 1 0
0 -4 0 1 0
0 -2 28 1 0
0 -4 0 0 0
25 2 37 0 0
0 -4 153 1 0
0 2 73 0 1
0 -2 2 0 0
0 -4 0 0 0
7 0 0 0 0
0 -2 0 0 0
0 -2 0 0 0
0 -4 0 1 0
0 -4 0 1 0
0 0 2 0 0
0 2 4 0 0
4 0 2 0 0
0 0 2 0 0
0 0 1 0 0
0 0 2 0 0
0 0 1 0 0
0 0 2 0 0
0 0 2 0 0
0 0 2 0 0
0 0 2 0 0
4 2 2 0 0
4 0 0 0 0
0 -4 0 0 0
0 0 0 0 0
-4 0 0 0 0
0 0 16 0 0
18 -4 6 0 0
36 -4 0 0 0
-14 -4 0 0 0
0 -5 6 0 0
0 0 0 0 0
0 0 0 0 0
0 0 0 0 0
0 0 1 0 0
0 -4 0 0 0
0 0 35 0 0
0 -4 75 0 1
-4 -4 19 0 0
0 0 0 0 0
0 0 0 0 0
0 -4 61 0 0
0 0 0 0 0
0 0 0 0 0
0 0 0 0 0
0 -5 0 0 0
0 0 2 0 0
0 0 7 0 0
0 0 2 1 0
0 0 3 0 0
0 0 65 0 0
0 0 15 0 0
21 0 1 0 1
-4 -5 0 0 0
0 -7 0 0 0
0 -4 0 0 0
0 0 1 0 0
0 0 0 0 0
0 0 0 0 0
0 0 0 0 1
0 0 0 0 0
0 0 1 0 0
4 0 1 0 0
0 0 0 1 1
0 0 0 0 0
0 0 0 0 0
0 0 2 0 0
25 0 156 0 0
32 0 39 0 0
50 0 0 0 0
0 0 0 1 0
0 5 0 0 0
0 0 1 0 0
0 0 0 0 0
0 7 10 0 1
0 0 0 0 1
0 4 152 0 0
0 0 162 0 0
0 0 0 0 0
0 4 84 0 0
0 0 175 0 0
0 -4 2 0 1
4 4 94 0 0
0 0 251 0 0
0 -2 0 0 1
0 4 93 0 1
0 4 0 0 1
0 0 0 0 0
0 -2 1 0 0
0 4 0 0 0
0 4 0 0 0
0 0 0 0 0
0 4 0 0 0
0 4 6 0 0
0 0 0 0 1
0 4 0 0 0
4 -2 0 0 0
0 -2 0 0 0
0 4 0 0 0
0 4 0 0 0
0 0 0 0 1
0 0 70 0 0
0 -2 0 0 0
25 -2 6 0 0
0 -11 74 0 0
4 -4 193 0 0
0 0 76 0 0
0 -4 127 0 0
0 -4 0 0 0
0 0 0 0 0
0 -4 0 0 0
0 0 0 1 0
0 -4 0 1 0
0 -4 3 1 0
0 0 57 1 0
0 0 276 0 0
0 2 173 0 0
0 2 5 0 0
4 0 1 0 0
0 0 0 0 1
0 4 0 1 1
0 2 0 0 1
0 4 0 0 0
0 0 0 0 0
0 0 0 0 0
0 0 0 0 0
0 0 0 0 0
0 0 0 0 0
0 0 0 0 0
0 0 1 0 0
0 0 0 0 0
0 0 0 0 0
0 0 0 0 0
0 0 0 0 0
0 0 0 0 0
0 0 0 1 0
0 -7 3 0 0
0 -4 0 0 1
0 -7 0 0 0
0 -7 5 0 0
4 -5 0 0 0
0 -5 21 0 0
0 2 0 0 0
0 -5 0 0 0
0 -5 28 0 0
0 -5 0 0 0
0 0 0 0 0
0 0 0 0 0
0 -7 0 0 0
0 -7 0 0 0
4 -4 0 0 0
64 0 23 0 0
0 0 84 0 0
0 0 102 0 0
0 -7 0 0 0
0 0 0 0 0
0 -4 0 0 0
0 0 0 0 1
0 4 1 1 0
0 5 87 0 0
0 5 0 0 0
0 2 1 0 1
-7 2 54 0 1
0 0 54 0 0
21 0 0 0 1
-4 5 1 0 0
0 0 0 0 0
0 0 137 0 0
0 0 153 0 0
7 0 283 0 0
0 0 92 0 0
0 0 32 0 1
0 0 1 0 0
7 0 0 0 0
0 0 0 1 1
4 -4 0 1 1
0 0 69 1 1
0 -4 38 0 1
0 -4 34 1 0
0 -2 0 1 0
0 0 0 1 0
0 -2 0 0 0
0 -2 0 1 0
0 0 0 1 0
4 -2 0 0 0
28 2 0 0 0
11 -4 0 1 0
25 2 0 0 0
28 0 0 1 0
4 -4 0 0 0
28 2 0 0 0
0 -4 0 0 0
0 -4 0 0 0
11 -2 0 1 0
0 -4 0 1 0
0 -2 0 0 0
32 2 0 0 0
28 4 0 0 0
28 4 36 0 0
0 0 170 0 0
4 0 17 0 1
0 2 38 0 0
0 0 0 0 0
-4 2 0 0 0
0 0 0 1 0
4 0 0 1 0
0 4 0 0 0
0 2 0 0 0
0 2 0 0 1
0 2 0 0 1
4 4 0 0 1
4 0 1 0 0
4 -2 0 0 0
0 -2 0 0 0
4 -2 0 0 0
7 0 0 0 0
0 0 0 0 0
0 2 9 0 0
0 0 4 0 1
0 0 0 0 1
0 2 0 0 1
0 0 184 0 0
4 -2 48 0 0
0 0 0 0 1
4 0 184 0 0
4 0 0 0 1
0 2 250 0 0
0 0 214 0 1
0 2 17 0 1
0 2 6 0 1
4 0 0 1 0
-11 2 0 0 0
0 0 0 0 0
0 0 0 0 0
14 0 0 1 1
0 0 0 1 1
0 0 0 1 0
0 0 0 1 0
0 0 0 1 0
0 0 0 1 0
0 0 0 0 0
0 0 0 0 0
0 0 0 0 0
0 0 0 0 0
0 0 0 0 0
0 0 0 0 0
0 0 0 0 0
0 2 0 0 0
0 2 0 0 0
4 0 0 0 0
0 0 0 0 0
4 2 0 0 0
0 2 0 0 0
0 0 0 0 0
0 0 0 0 0
0 0 0 0 0
0 -2 0 0 0
0 0 0 0 0
0 0 0 0 0
0 0 0 0 0
0 0 0 0 0
0 -2 0 0 0
0 0 0 0 0
0 0 0 1 1
0 0 0 1 1
0 0 0 0 0
0 0 0 0 0
0 0 0 0 0
0 0 0 0 0
0 0 0 0 0
0 0 0 0 0
0 0 0 0 0
0 0 0 0 0
0 0 0 0 0
0 0 0 0 0
0 0 0 0 1
0 0 0 0 1
0 0 0 0 1
0 0 0 0 1
0 0 0 0 1
0 0 0 0 1
0 0 0 0 1
0 0 0 0 1
0 0 0 1 1
0 0 1 1 1
0 0 11 1 1
0 0 0 1 1
0 0 0 0 1
0 0 0 0 0
0 0 0 0 1
0 0 0 0 1
0 0 0 0 1
0 0 0 0 0
0 0 0 0 0
0 0 0 0 0
0 0 0 0 0
0 0 0 0 0
0 0 0 0 0
0 0 0 0 0
0 0 0 0 0
0 0 0 0 0
0 0 0 0 0
0 0 0 0 0
0 2 0 0 0
0 0 0 0 0
0 0 0 0 0
0 0 0 0 0
0 0 0 0 0
0 0 0 0 0
0 0 0 0 0
0 0 0 0 0
0 0 0 0 0
0 0 0 0 0
0 0 0 0 0
0 0 0 0 0
0 0 0 0 0
0 0 0 0 0
0 0 0 0 0
0 0 0 0 0
0 0 0 0 0
0 0 0 0 0
0 0 0 0 0
0 0 0 0 0
0 0 0 0 0
0 0 0 0 0
0 0 0 0 0
0 0 0 0 0
0 0 0 0 0
0 0 0 0 0
0 0 0 0 0
0 0 0 0 0
0 0 0 0 0
0 0 0 0 0
0 0 0 0 0
0 0 0 0 0
0 0 0 0 0
0 0 0 0 0
0 0 0 0 0
0 0 0 0 0
0 0 0 0 0
0 0 0 0 0
0 0 0 0 0
0 0 0 0 0
0 0 0 0 0
0 0 0 0 0
0 0 0 0 0
0 0 0 0 0
0 0 0 0 0
0 0 0 0 0
0 0 0 0 0
0 0 0 0 0
0 0 0 0 0
0 0 0 0 0
0 0 0 0 0
0 0 0 0 0
0 0 0 0 0
0 0 0 0 0
0 0 0 0 0
0 0 0 0 0
0 0 0 0 0
0 0 0 0 0
0 0 0 0 0
0 0 0 0 0
0 2 0 0 0
0 0 0 0 0
0 0 0 0 0
0 0 0 0 0
0 0 0 0 0
0 0 0 0 0
0 0 0 0 0
0 0 0 0 0
0 2 0 0 0
0 0 0 0 0
0 0 0 0 0
0 2 0 0 0
0 0 0 0 0
0 0 0 0 0
0 0 0 0 0
0 0 0 0 0
0 0 0 0 0
28 2 0 0 0
0 0 0 0 0
0 0 0 0 0
0 -2 0 0 0
0 0 0 0 0
0 0 0 0 0
0 0 0 0 0
0 0 0 0 0
0 -2 0 0 0
0 0 0 0 0
0 0 0 0 0
0 -2 0 0 0
0 0 0 0 0
0 0 0 0 0
0 0 0 0 0
0 0 0 0 0
0 0 0 0 0
0 0 0 0 0
0 0 0 1 0
0 0 0 1 1
0 0 0 1 1
0 0 0 1 0
0 0 94 1 0
0 0 51 1 0
0 0 1 0 0
0 0 32 1 0
0 0 57 0 0
0 0 64 1 0
0 0 132 1 0
0 0 125 0 0
0 0 116 0 0
0 0 109 0 0
0 0 107 0 0
0 0 104 0 0
0 0 105 0 0
0 0 222 0 0
0 0 218 0 0
0 0 212 0 0
0 0 230 0 0
0 0 239 0 0
0 0 243 0 0
0 0 245 0 0
0 0 249 0 0
0 0 253 0 0
0 0 248 0 0
0 0 242 0 0
0 0 253 0 0
0 0 261 0 0
0 0 221 0 0
0 0 163 0 0
0 0 191 0 0
0 0 211 0 0
0 0 216 0 0
0 0 292 0 0
0 0 213 0 0
0 0 224 0 0
0 0 230 0 0
0 0 228 0 0
0 0 231 0 0
0 0 223 0 0
0 0 218 0 0
0 0 227 0 0
0 0 211 0 0
0 0 211 0 0
0 0 211 0 0
0 0 220 0 0
0 0 218 0 0
0 0 219 0 0
0 0 219 0 0
0 0 220 0 0
0 0 218 0 0
0 0 215 0 0
0 0 213 0 0
0 0 276 0 0
0 0 240 0 0
0 0 230 0 0
0 0 223 0 0
0 0 221 0 0
0 0 223 0 0
0 2 228 0 0
0 0 223 0 0
0 0 210 0 0
0 0 222 0 0
0 0 220 0 0
0 0 212 0 0
0 0 227 0 0
0 0 226 0 0
0 2 195 0 0
0 0 198 0 0
0 0 204 0 0
28 0 219 0 0
0 0 227 0 0
0 2 214 0 0
0 -2 224 0 0
0 0 226 0 0
0 0 195 1 0
0 0 106 1 0
14 2 101 1 0
4 0 123 1 0
14 2 166 0 0
0 0 158 0 0
0 0 149 0 0
0 0 157 0 0
0 0 153 0 0
0 0 148 0 0
0 0 151 0 0
0 0 156 0 0
0 0 159 0 0
0 0 167 0 0
0 0 190 0 0
0 0 177 0 0
0 0 188 0 0
0 0 175 0 0
0 0 174 0 0
4 0 173 0 0
0 0 170 0 0
0 0 172 0 0
0 0 172 0 0
0 0 165 0 0
0 0 136 0 0
0 0 154 0 0
0 0 162 0 0
0 0 162 0 0
0 0 183 0 0
0 0 162 0 0
0 0 203 0 0
0 0 155 1 0
0 0 100 1 1
4 2 98 0 0
0 0 96 1 0
0 5 115 1 0
0 0 112 1 0
0 0 103 1 0
14 5 89 1 0
32 2 89 1 1
0 0 92 1 1
0 9 81 1 0
0 0 82 1 1
0 0 83 1 1
0 0 81 1 1
0 0 80 1 1
0 4 79 1 1
0 0 79 1 1
0 0 80 1 1
0 0 81 1 1
0 0 82 1 1
0 4 72 1 1
0 0 73 1 1
0 0 75 1 1
0 4 70 1 1
28 2 72 1 1
0 0 123 0 0
0 0 127 0 0
0 0 131 0 0
0 -4 160 0 0
0 2 157 0 0
0 0 153 0 0
0 0 150 0 0
0 -2 94 0 0
0 2 28 0 0
0 0 28 0 0
0 -4 13 0 0
0 0 9 0 0
0 0 9 0 0
0 -2 2 0 0
0 2 4 0 0
0 0 4 0 0
0 2 0 0 0
0 0 0 0 0
0 -2 0 0 0
0 0 0 0 0
0 0 0 0 0
0 2 0 0 0
0 0 0 0 0
0 -2 0 0 0
0 0 1 0 0
0 0 0 0 0
0 2 0 0 0
0 2 0 0 0
0 2 0 0 0
0 0 0 0 0
0 0 0 0 0
0 4 0 0 0
0 0 0 0 0
0 0 0 0 0
28 4 0 0 0
0 0 0 0 0
0 0 0 0 0
0 0 0 0 0
0 0 0 0 0
0 2 0 0 0
0 0 0 0 0
0 2 0 0 0
0 0 0 0 0
0 0 0 0 0
0 0 0 0 0
0 4 0 0 0
0 0 0 0 0
0 0 0 0 0
0 2 1 0 0
0 0 0 0 0
0 0 0 0 0
0 0 0 0 0
0 4 0 0 0
0 0 0 0 0
0 0 0 0 0
0 0 4 0 0
0 0 115 0 0
0 0 61 0 0
0 0 58 0 0
0 0 69 0 0
0 0 74 0 0
0 0 84 0 0
0 0 67 0 0
4 4 8 0 0
0 0 14 0 0
0 0 18 0 0
4 4 0 0 0
0 0 0 0 0
0 0 0 0 0
0 0 0 0 0
0 0 1 0 0
0 0 0 0 0
32 4 0 0 0
0 0 0 0 0
0 0 0 0 0
0 0 0 0 0
0 0 0 0 0
0 0 0 0 0
0 0 1 0 0
0 0 0 0 0
4 2 0 0 0
0 0 0 0 0
0 0 0 0 0
0 0 0 0 0
0 0 0 0 0
0 0 0 0 0
0 0 0 0 0
0 0 0 0 0
4 5 0 0 0
4 2 0 0 0
0 0 0 0 0
0 0 0 0 0
0 0 0 0 0
0 0 0 0 0
0 0 0 0 0
0 0 0 0 0
0 0 0 0 0
0 0 0 0 0
0 0 0 0 0
0 0 0 0 0
0 0 0 0 0
0 0 0 0 0
0 0 0 0 0
0 0 0 1 0
0 0 0 1 0
0 0 0 0 0
0 0 0 0 0
0 0 0 0 0
0 0 0 0 0
0 0 0 1 0
0 -4 0 1 0
0 0 1 1 0
0 0 1 1 0
0 0 1 1 0
0 0 0 1 0
0 0 1 1 0
4 -4 1 1 0
0 -2 1 1 0
0 0 1 1 0
0 0 1 1 0
0 0 0 0 0
0 0 1 0 0
0 -4 1 0 0
0 0 0 0 0
0 0 2 0 0
0 0 1 0 0
0 0 0 0 0
0 0 1 0 0
0 0 1 0 0
0 0 0 0 0
0 0 1 0 0
0 0 1 0 0
0 0 1 0 0
0 0 1 0 0
0 0 1 0 0
0 0 1 0 0
0 0 0 0 0
0 2 0 0 0
0 2 3 0 0
0 0 3 0 0
0 0 3 0 0
0 0 4 0 0
0 0 3 0 0
0 0 0 0 0
0 0 0 0 0
0 0 0 0 0
0 -2 0 0 0
0 0 0 0 0
0 0 0 0 0
0 0 0 0 0
0 0 0 0 0
0 0 0 0 0
53 4 0 0 0
21 0 0 0 0
0 0 0 0 0
0 0 0 0 0
0 0 0 0 0
0 0 0 0 0
0 0 0 0 0
0 0 0 0 0
0 2 0 0 0
0 0 0 0 0
0 0 0 0 0
0 0 0 0 0
0 0 0 0 0
0 0 0 0 0
0 0 0 0 0
0 0 0 0 0
0 0 0 0 0
0 0 0 0 0
0 0 0 0 0
0 0 0 0 0
0 0 0 0 0
0 0 0 0 0
0 0 0 0 0
0 0 0 0 0
0 0 1 0 0
0 0 0 0 0
0 0 0 0 0
0 0 0 0 0
0 0 0 0 0
0 0 0 0 0
0 0 0 0 0
0 0 0 0 0
0 0 0 0 0
0 0 0 0 0
0 0 0 0 0
0 0 0 0 0
0 0 0 0 0
11 2 0 0 0
4 0 0 0 0
0 0 1 0 0
0 0 3 0 0
0 0 2 0 0
0 0 4 0 0
0 0 4 0 0
0 0 2 0 0
0 0 1 0 0
0 0 2 0 0
0 0 1 0 0
0 0 3 0 0
0 0 4 0 0
0 0 2 0 0
0 0 2 0 0
0 0 1 0 0
0 0 0 0 0
0 0 3 0 0
0 0 2 0 0
0 0 2 0 0
0 0 2 0 0
0 0 2 0 0
0 0 0 0 0
0 0 2 0 0
0 0 1 0 0
0 0 0 0 0
0 0 2 0 0
0 0 26 0 0
0 0 24 0 0
0 0 27 0 0
0 0 23 0 0
0 0 32 0 0
0 0 27 0 0
0 0 0 0 0
0 0 3 0 1
0 0 0 0 1
0 0 1 0 0
0 0 4 0 0
0 0 3 0 0
0 0 9 0 0
0 0 10 0 0
0 0 126 0 0
0 0 2 1 0
0 0 2 0 0
0 0 3 0 0
0 0 6 0 0
0 0 11 0 0
0 0 11 0 0
0 0 46 0 0
0 0 47 0 0
0 0 41 0 0
0 0 224 0 0
0 0 175 0 0
0 0 152 0 0
0 0 150 0 1
0 0 137 1 0
0 0 173 0 0
0 0 27 1 1
0 0 179 0 1
0 0 59 1 1
0 0 176 0 1
0 0 84 1 1
0 0 92 1 1
0 0 108 1 0
0 0 129 1 0
0 0 166 0 0
0 0 159 0 0
0 0 165 0 1
0 0 182 0 0
0 0 172 0 0
0 0 185 0 0
0 0 189 0 0
0 0 177 1 0
0 0 182 1 0
0 0 168 1 0
0 0 99 0 0
0 0 171 0 0
0 0 245 0 0
0 0 259 1 0
0 0 254 1 0
0 0 259 1 0
0 0 246 1 0
0 0 261 0 0
0 0 264 0 0
0 0 254 0 0
0 0 194 0 0
0 0 246 0 0
0 0 187 1 0
0 0 205 0 0
0 0 175 0 0
0 0 177 0 0
0 0 154 0 0
0 0 151 1 0
0 0 147 1 0
0 0 176 0 0
0 0 174 0 0
0 0 168 0 0
0 0 169 0 0
0 0 164 0 0
0 0 175 0 0
0 0 165 0 0
0 0 166 0 0
0 0 163 0 0
0 0 165 0 0
0 0 163 0 0
0 0 161 0 0
0 0 160 0 0
0 0 141 0 0
0 0 166 0 0
0 0 172 0 0
0 0 180 0 0
0 0 185 0 0
0 0 165 0 0
0 0 155 0 0
0 0 156 0 0
0 0 119 1 0
0 0 140 1 1
0 0 120 1 1
0 0 105 1 1
0 0 121 1 1
0 0 88 1 1
0 0 107 1 1
0 0 101 1 0
0 0 138 1 0
0 0 134 1 0
0 0 170 1 0
0 0 87 0 0
0 0 67 0 1
0 0 0 0 1
0 0 0 0 1
0 0 0 0 1
0 0 0 0 0
0 0 0 0 0
0 0 0 0 0
0 0 0 1 0
0 0 0 0 0
0 0 0 0 0
0 0 1 0 0
0 0 0 0 0
0 -2 0 0 0
0 0 0 0 0
0 0 0 0 0
0 0 0 0 0
0 -2 0 0 0
0 0 0 0 0
0 0 0 0 0
0 2 0 0 0
0 0 0 0 0
4 -2 0 0 0
0 0 0 0 0
0 2 0 0 0
0 0 0 0 0
0 0 0 0 0
0 0 0 0 0
0 -2 0 0 0
0 0 0 0 0
0 0 1 0 0
0 0 0 0 0
0 0 0 0 0
0 0 0 0 0
0 -2 0 0 0
0 0 0 0 0
0 0 0 0 0
0 0 1 0 0
0 0 0 0 0
0 0 0 0 0
0 -2 0 0 0
0 0 1 0 0
0 -2 0 0 0
0 2 0 0 0
0 0 0 0 0
0 0 0 0 0
0 0 0 0 0
0 -2 1 0 0
0 0 0 0 0
0 0 0 0 0
0 2 0 0 0
4 0 0 0 0
0 0 0 0 0
0 0 0 0 0
0 0 0 0 0
0 0 0 0 0
0 0 0 0 0
0 0 0 0 0
0 0 0 0 0
7 0 0 0 0
0 0 0 0 0
0 0 0 0 0
25 0 0 0 0
0 0 0 0 0
0 -2 0 0 0
0 0 0 0 0
0 2 0 0 0
0 -2 0 0 0
0 4 0 0 0
0 -2 0 0 0
0 -2 1 0 0
0 0 0 0 0
0 0 0 0 0
0 0 0 0 0
0 0 0 0 0
0 0 0 0 0
0 0 0 0 0
0 -2 0 0 0
0 0 0 0 0
0 0 0 0 0
0 0 0 0 0
0 0 0 0 0
0 0 0 0 0
0 -2 0 0 0
4 0 0 0 0
0 0 0 0 0
4 -4 1 0 0
0 0 0 0 0
0 0 0 0 0
0 0 15 0 0
0 0 0 0 0
0 -2 0 0 0
4 -2 1 0 0
4 0 1 0 0
4 -2 0 0 0
0 -2 0 0 1
0 -2 0 0 1
0 -2 0 0 1
4 0 0 0 1
0 0 0 0 1
4 0 0 0 1
4 -4 0 0 1
0 0 0 0 1
0 0 0 0 1
0 0 0 0 1
0 0 0 0 1
0 0 1 0 1
0 0 0 0 1
0 0 0 1 0
0 0 0 1 0
0 0 0 1 0
0 0 0 1 0
0 0 1 1 0
0 0 0 1 0
0 0 0 0 0
0 0 0 0 0
0 0 0 0 0
0 0 0 0 0
4 -2 0 0 0
0 0 0 0 0
0 0 0 0 0
0 0 0 0 0
0 0 0 0 0
0 0 0 0 0
0 0 0 0 0
0 0 0 0 0
0 0 0 0 0
0 0 0 0 0
0 0 1 0 0
0 0 0 0 0
0 0 0 0 0
0 0 0 0 0
0 0 0 0 0
0 0 0 0 0
0 0 0 0 0
0 0 0 0 0
0 0 0 0 0
0 0 0 0 0
0 0 0 0 0
0 0 0 0 0
4 0 0 0 0
0 0 0 0 0
0 0 0 0 0
0 0 0 0 0
0 0 0 0 0
0 0 0 0 0
0 -2 0 0 0
0 0 0 0 0
4 0 0 0 0
0 0 0 0 0
0 -2 0 1 0
0 0 1 0 0
0 0 0 0 0
0 0 0 0 0
4 0 0 0 0
0 0 0 0 0
0 0 0 0 0
0 0 0 0 0
0 0 0 0 0
0 0 0 0 0
4 0 0 0 0
0 -2 0 0 0
0 0 0 0 0
0 -2 0 0 0
4 0 0 0 0
0 0 0 0 0
0 -2 0 0 0
0 0 0 0 0
0 0 1 0 0
0 0 0 0 0
0 0 0 0 0
7 -2 0 0 0
18 0 0 0 0
0 0 0 0 0
0 0 0 0 0
0 0 0 0 0
0 -2 1 0 0
4 -2 0 0 0
0 0 0 0 0
0 0 0 0 0
0 0 0 0 0
0 0 0 0 0
0 0 0 0 0
4 -2 0 0 0
0 0 0 0 0
0 -2 0 0 0
0 0 0 0 0
0 0 0 0 0
0 0 0 0 0
0 -2 0 0 0
0 0 0 0 0
0 0 0 0 0
0 0 0 0 0
0 0 0 0 0
0 0 0 0 0
0 0 0 0 0
0 0 0 0 0
0 0 0 0 0
0 -2 0 0 0
0 -2 0 0 0
4 0 0 0 0
0 0 1 0 0
0 2 0 0 0
0 0 1 0 0
4 0 0 0 0
0 0 0 0 0
0 0 0 0 0
0 0 0 0 0
0 0 0 0 0
4 0 0 0 0
0 -2 0 0 0
0 0 0 0 0
0 0 0 0 0
0 0 0 0 0
4 -2 0 0 0
0 0 0 0 0
0 0 0 0 0
0 0 0 0 0
0 0 0 0 0
0 0 0 0 0
21 0 0 0 0
0 0 0 0 0
0 0 0 0 0
0 0 0 0 0
0 0 0 0 0
0 0 0 0 0
0 0 1 0 0
0 0 0 0 0
0 0 0 0 0
0 0 0 0 0
0 0 0 0 0
0 0 0 0 0
0 0 0 0 0
0 0 0 0 0
0 0 0 0 0
0 0 0 0 0
0 0 0 0 0
0 0 0 0 0
0 0 0 0 0
0 0 0 0 0
0 0 0 0 0
0 0 0 0 0
0 0 0 0 0
0 0 0 0 0
0 0 0 0 0
0 0 0 0 0
0 0 0 0 0
0 0 0 0 0
0 0 0 0 0
0 0 0 0 0
0 0 0 0 0
0 0 0 0 0
0 0 0 0 0
0 0 0 0 0
0 0 0 0 0
0 0 1 0 0
0 0 23 0 0
0 0 2 0 0
0 0 9 0 0
0 0 0 0 0
0 0 0 0 0
0 0 0 0 0
0 0 0 0 0
0 0 0 0 0
0 0 1 0 0
0 0 0 0 0
0 0 0 0 0
0 0 0 0 0
0 0 0 0 0
0 0 0 0 0
0 0 0 0 0
0 0 0 0 0
0 0 0 0 0
0 0 0 0 0
0 0 0 0 0
0 0 0 0 0
0 0 0 0 0
0 0 0 0 0
0 0 0 0 0
0 0 1 0 0
0 0 0 0 0
0 0 0 0 0
0 0 0 0 0
0 0 0 0 0
0 0 0 0 0
0 0 0 0 0
0 -2 0 0 0
18 2 0 0 0
0 0 0 0 0
0 -2 0 0 0
0 0 0 0 0
0 0 0 0 0
0 -2 0 0 0
0 0 0 0 0
0 0 0 0 0
0 0 0 0 0
0 0 1 0 0
0 0 0 0 0
0 0 0 0 0
0 2 0 0 0
0 -2 0 0 0
0 0 0 0 0
0 0 0 0 0
18 0 0 0 0
0 0 0 0 0
4 2 0 0 0
43 0 0 0 0
0 0 0 0 0
11 -2 0 0 0
18 2 0 0 0
0 0 0 0 0
0 0 0 0 0
0 0 0 0 0
0 0 0 0 0
0 0 0 0 0
0 0 0 0 0
0 0 0 0 0
0 0 0 0 0
0 0 0 0 0
0 0 0 0 0
0 0 0 0 0
0 0 0 0 0
0 2 0 0 0
0 0 0 0 0
0 0 0 0 0
0 0 1 0 0
0 -2 0 0 0
0 0 0 0 0
0 0 0 0 0
0 2 0 0 0
0 -2 0 0 0
0 0 0 0 0
0 -2 0 0 0
0 2 0 0 0
0 0 0 0 0
0 0 0 0 0
0 2 0 0 0
0 0 0 0 0
0 0 0 0 0
21 0 0 0 0
0 0 0 0 0
0 0 0 0 0
0 0 0 0 0
0 0 0 0 0
0 0 0 0 0
0 0 0 0 0
0 0 0 0 0
0 0 0 0 0
0 0 0 0 0
0 0 0 0 0
0 0 0 0 0
0 0 0 0 0
0 0 0 0 0
0 0 0 0 0
0 0 0 0 0
0 0 0 0 0
0 0 0 0 0
0 -2 0 0 0
0 2 0 0 0
0 0 0 0 0
0 0 1 0 0
4 0 0 0 0
0 0 0 0 0
0 0 0 0 0
21 0 0 0 0
0 0 0 0 0
0 2 0 0 0
25 0 0 0 0
0 0 0 0 0
0 0 0 0 0
4 0 0 0 0
0 0 0 0 0
0 0 0 0 0
0 0 0 0 0
0 0 0 0 0
0 0 0 0 0
0 0 0 0 0
0 0 0 0 0
0 0 0 0 0
0 0 0 0 0
0 0 0 0 0
0 0 1 0 0
0 0 1 0 0
0 0 0 0 0
0 0 0 0 0
0 0 0 0 0
0 0 0 0 0
0 0 0 0 0
0 0 0 0 0
0 -2 1 0 0
18 0 0 0 0
0 4 0 0 0
0 0 0 0 0
0 0 0 0 0
0 0 0 0 0
0 0 0 0 0
0 0 0 0 0
0 0 1 0 0
0 0 0 0 0
0 0 0 0 0
0 0 0 0 0
0 0 0 0 0
0 0 0 0 0
0 0 0 0 1
0 0 0 0 1
0 2 0 0 1
0 -2 0 0 0
0 0 1 0 0
0 0 0 0 1
0 0 0 0 0
0 0 0 0 0
0 0 0 0 0
0 0 0 0 0
0 0 0 0 0
0 0 0 0 0
0 0 0 0 0
0 0 0 0 0
0 -2 0 0 0
0 2 0 0 0
0 0 0 0 0
4 0 0 0 0
0 0 1 0 0
0 0 0 0 0
4 0 1 0 0
0 0 0 0 0
18 0 0 0 0
4 0 0 0 0
11 -2 0 0 0
0 0 1 0 0
0 0 0 0 0
4 0 0 0 0
0 0 1 0 0
0 0 0 0 0
0 0 0 0 0
0 -2 0 0 0
0 2 0 0 0
0 0 0 0 1
0 0 0 0 0
0 0 0 0 0
0 0 1 0 0
25 0 0 0 0
0 0 0 0 0
0 0 0 0 0
0 -2 0 0 0
0 0 0 0 0
0 0 0 0 0
0 2 0 0 0
0 0 0 0 0
0 0 0 0 0
4 0 0 0 1
0 0 0 0 1
0 0 0 0 1
0 0 0 0 1
0 0 0 0 1
0 0 0 0 1
0 -2 1 0 1
0 0 0 0 1
18 0 0 0 1
0 0 0 0 1
4 0 0 0 1
11 0 0 0 1
0 0 0 0 1
11 0 0 0 1
0 0 0 0 1
4 0 0 0 1
18 0 0 0 1
0 0 1 0 1
21 2 0 0 1
0 0 0 0 1
0 0 0 0 1
0 0 0 0 1
0 0 0 0 0
0 0 0 0 0
0 0 0 0 0
0 0 0 0 0
0 0 0 0 0
0 0 1 0 0
0 0 0 0 0
0 0 0 0 0
0 0 0 0 0
0 0 0 0 0
0 0 0 0 0
0 0 0 0 0
0 0 0 0 0
0 0 0 0 0
0 0 1 0 0
0 0 0 0 0
0 0 0 0 0
0 0 0 0 0
0 0 0 0 0
0 0 0 0 0
0 0 0 0 0
0 0 0 0 0
0 0 0 0 0
0 0 0 0 0
0 0 0 0 0
0 0 0 0 0
0 0 0 0 0
0 0 0 0 0
0 0 0 0 0
0 0 0 0 0
0 0 0 0 0
0 0 0 0 0
0 0 0 0 0
0 0 0 0 0
0 0 1 0 0
0 0 0 0 0
0 0 1 0 0
0 0 0 0 0
0 0 0 0 0
0 0 0 0 0
0 0 0 0 0
0 0 0 0 0
0 0 0 0 0
0 0 0 0 0
0 0 0 0 0
0 0 0 0 1
0 0 0 0 0
0 0 0 0 0
0 0 0 0 0
0 0 0 0 0
0 0 0 0 0
0 0 0 0 0
0 0 1 0 0
0 0 0 0 0
0 0 0 0 0
0 0 54 0 0
0 0 0 0 0
0 0 0 0 0
0 0 0 0 0
0 0 0 0 0
0 0 0 0 0
0 0 0 0 0
0 0 0 0 0
0 0 0 0 0
0 0 0 0 0
0 0 0 0 0
0 0 0 0 0
0 0 1 0 0
0 0 0 0 0
0 0 1 0 0
0 0 0 0 0
0 0 0 0 0
0 0 0 0 0
0 0 0 0 0
0 0 0 0 0
0 0 0 0 0
0 0 0 0 0
0 0 0 0 0
0 0 0 0 0
0 0 0 0 0
0 0 0 0 0
0 0 1 0 0
0 0 0 0 0
0 0 0 0 0
0 0 0 0 0
0 0 0 0 0
0 0 1 0 0
0 0 0 0 0
0 0 0 0 0
0 0 0 0 0
0 0 0 0 0
0 0 0 0 0
0 0 0 0 0
0 0 0 0 0
0 0 0 0 0
0 0 1 0 0
0 0 0 0 0
0 0 0 0 0
0 0 0 0 0
0 0 2 0 0
0 0 0 0 0
0 0 0 0 0
0 0 0 0 0
0 0 0 0 0
0 0 1 0 0
0 0 0 0 0
0 0 0 0 0
0 0 1 0 0
0 0 0 0 0
0 0 0 0 0
0 0 0 0 0
0 0 0 0 0
4 0 0 0 0
4 0 1 0 0
0 0 0 0 0
0 0 0 0 0
0 -4 0 0 0
0 0 0 0 0
0 0 0 0 0
0 0 0 0 0
0 2 0 0 0
0 0 0 0 0
0 0 0 0 0
0 0 0 0 0
0 0 0 0 0
0 0 1 0 0
0 0 0 0 0
0 0 1 0 0
0 0 0 0 0
0 0 1 0 0
0 0 0 0 0
0 0 1 0 0
0 -2 0 0 0
0 0 0 0 0
0 0 0 0 0
0 0 0 0 0
4 -2 0 0 0
0 0 0 0 0
0 0 0 0 0
0 0 0 0 1
0 0 0 0 1
0 0 0 0 1
0 0 0 0 0
0 0 4 0 0
0 0 0 0 0
0 0 0 0 0
0 0 0 0 0
0 0 0 0 0
0 0 0 0 0
0 0 0 0 0
0 0 0 0 0
0 0 0 0 0
0 0 0 0 0
0 0 0 0 0
39 0 0 0 0
0 0 0 0 0
0 0 0 0 0
0 0 1 0 0
0 -2 0 0 0
14 0 0 0 0
0 0 0 0 0
0 2 0 0 0
0 0 1 0 0
0 0 0 0 0
0 0 1 0 0
0 2 0 0 0
0 0 0 0 0
0 0 0 0 0
0 0 0 0 0
25 0 0 0 0
11 0 0 0 0
0 2 0 0 0
0 -2 0 0 0
0 0 0 0 0
0 0 0 0 0
0 0 0 0 0
0 -2 0 0 0
4 0 0 0 0
7 2 0 0 0
14 0 0 0 0
0 0 0 0 0
4 0 0 0 0
0 0 0 0 0
0 0 0 0 0
0 0 1 0 0
0 12 0 0 0
0 0 0 0 0
0 0 0 0 0
0 0 0 0 0
0 2 0 0 0
0 0 1 0 0
0 4 0 0 0
0 0 0 0 0
0 2 0 0 0
0 2 0 0 0
0 0 0 0 0
4 4 0 0 0
0 0 0 0 0
0 0 1 0 0
0 4 0 0 0
0 0 0 0 0
0 0 0 0 0
0 0 1 0 0
0 0 0 0 0
0 0 0 0 0
0 2 0 0 0
0 0 0 0 0
0 0 0 0 0
0 0 0 0 0
14 0 0 0 0
0 0 0 0 0
1191 0 0 0 0
0 0 0 0 0
0 0 0 0 0
0 0 0 0 0
0 0 0 0 0
0 -4 0 0 0
0 0 0 0 0
0 0 0 0 0
0 0 0 0 0
0 0 0 0 0
0 0 0 0 0
0 0 0 0 0
0 0 0 0 0
0 0 0 0 0
0 0 0 1 1
0 0 0 1 1
0 0 0 1 1
0 0 0 1 1
0 0 1 1 1
0 0 0 1 0
0 0 0 1 0
0 0 0 0 0
0 -2 0 0 0
0 -2 0 0 0
0 0 0 0 0
0 0 0 0 0
0 -2 0 0 0
4 0 0 0 0
0 0 0 0 0
0 2 0 0 0
0 0 1 0 0
0 0 0 0 0
0 0 0 0 0
0 0 0 0 0
0 0 0 0 0
0 0 0 0 0
0 0 0 0 0
0 0 0 0 0
0 0 1 0 0
0 0 0 0 0
0 0 0 0 0
0 0 0 0 0
0 0 0 0 0
0 0 0 0 0
0 0 0 0 0
0 0 1 0 0
0 0 0 0 0
0 0 0 0 0
0 0 0 0 0
0 0 0 0 0
0 0 0 0 0
0 0 0 0 0
7 0 0 0 0
0 0 0 0 0
0 0 0 0 0
0 0 0 0 0
0 0 0 0 0
0 0 0 0 0
0 0 0 0 0
0 0 0 0 0
0 0 0 0 0
0 0 0 0 0
0 0 0 0 0
0 0 0 0 0
0 0 0 0 0
0 0 0 0 0
0 0 0 0 0
0 0 0 0 0
0 0 0 0 0
0 0 0 0 0
0 0 0 0 0
0 0 0 0 0
0 0 0 0 0
0 0 0 0 0
0 0 0 0 0
0 0 0 0 0
0 0 0 0 0
0 0 0 0 0
0 0 0 0 0
0 0 0 0 0
0 0 0 0 0
0 0 0 0 0
0 0 0 0 0
0 0 0 0 0
0 0 0 0 0
0 0 0 0 0
0 0 0 0 0
0 0 0 0 0
0 0 0 0 0
0 0 0 0 0
0 0 0 0 0
0 0 0 0 0
0 0 0 0 0
0 0 0 0 0
0 0 0 0 0
0 0 0 0 0
0 0 0 0 0
0 0 0 0 0
0 0 0 0 0
0 0 0 0 0
0 0 0 0 0
0 0 0 0 0
0 0 0 0 0
0 0 0 0 0
0 0 0 0 0
0 0 0 0 0
0 0 0 0 0
0 0 0 0 0
0 0 0 0 0
0 0 0 0 0
0 0 0 0 0
0 0 0 0 0
0 0 0 0 0
0 0 0 0 0
0 0 0 0 0
0 0 0 0 0
0 0 0 0 0
0 0 0 0 0
0 0 0 0 0
0 0 0 0 0
0 0 0 0 0
0 0 0 0 0
0 0 0 0 0
0 0 0 0 0
0 0 0 0 0
0 0 1 0 0
0 0 0 0 0
0 0 1 0 0
0 0 0 0 0
0 0 0 0 0
0 0 0 0 0
0 0 0 0 0
0 0 0 0 0
0 0 0 0 0
0 0 0 0 0
0 0 0 0 0
0 0 0 0 0
0 0 0 0 0
4 0 0 0 0
0 0 1 0 0
0 0 0 0 0
0 0 0 0 0
0 0 0 0 0
0 0 0 0 0
0 0 0 0 0
0 0 0 0 0
0 0 1 0 0
