0 0 1 0 0
0 0 0 0 1
0 4 0 0 0
0 4 0 0 0
68 0 0 0 0
0 0 8 0 0
0 7 0 0 0
0 2 0 0 0
21 2 247 0 0
21 2 49 0 0
21 2 55 0 0
-4 5 4 0 0
64 0 0 0 0
68 0 0 0 0
64 0 0 0 0
64 0 0 0 0
28 0 0 0 0
32 0 0 1 0
0 -4 0 0 0
7 -2 0 0 0
7 0 0 0 0
0 -4 0 0 0
64 0 0 0 0
50 0 1 0 0
-4 4 87 0 0
7 2 12 0 0
36 0 20 1 1
0 4 9 0 0
0 0 16 0 0
0 0 25 0 0
0 0 1 0 0
0 0 2 0 0
7 0 34 0 0
0 0 1 0 1
0 4 0 0 1
0 0 79 0 0
0 0 6 0 0
7 0 78 0 0
28 0 107 0 0
0 0 181 0 0
4 0 115 0 0
0 0 90 0 0
0 0 74 0 0
0 0 65 0 0
0 0 62 0 0
0 0 66 0 0
0 0 71 0 0
0 0 107 0 1
0 0 111 0 0
-4 0 0 0 0
0 0 0 0 1
0 0 0 0 1
0 0 1 0 0
0 2 0 0 1
0 0 1 0 0
25 -2 2 0 0
28 0 3 0 0
0 0 113 0 0
28 0 114 0 0
4 0 97 0 0
0 0 97 0 0
0 0 101 0 0
0 0 104 0 0
0 0 101 0 0
0 0 96 0 0
0 0 99 0 0
0 0 98 0 0
0 0 96 0 0
0 0 95 0 0
0 0 96 0 0
0 0 17 0 0
0 -2 83 0 0
0 -5 0 0 0
0 -7 0 0 0
0 -2 0 0 0
4 0 0 0 0
-4 -2 0 0 0
0 0 0 1 0
0 -5 0 0 0
0 -4 0 0 0
0 -4 10 0 0
0 0 61 0 0
0 0 162 0 0
0 0 322 0 0
0 0 25 0 1
0 5 218 0 0
0 5 2 0 0
0 4 0 0 0
0 4 0 0 0
0 0 1 0 0
0 0 3 0 0
0 4 35 0 0
0 0 74 0 0
0 7 0 0 0
0 0 202 0 0
0 0 186 0 0
0 0 116 0 0
0 2 25 0 1
0 4 3 0 0
0 -2 0 0 0
0 0 1 0 0
0 7 0 0 0
0 5 0 0 0
4 0 0 0 1
-18 2 0 0 0
0 -4 1 0 0
0 -4 0 0 0
4 -4 0 0 0
7 -4 0 0 0
0 0 0 0 1
0 4 0 0 1
0 4 1 0 0
0 0 176 0 0
0 0 7 0 1
0 0 0 0 1
0 4 38 0 1
0 4 31 0 0
0 0 82 0 1
0 0 369 0 0
0 0 296 0 0
0 0 5 0 1
0 2 439 0 0
0 -2 376 0 0
0 -2 8 0 1
0 0 431 0 0
0 -4 380 0 0
25 -2 7 0 1
0 0 405 0 0
0 -2 251 0 0
0 2 9 0 1
0 0 447 0 0
0 -2 179 0 0
4 0 11 0 1
4 0 4 0 0
0 0 2 0 0
0 0 1 0 0
0 0 1 0 0
0 0 2 0 0
0 0 1 0 0
0 0 1 0 0
0 0 2 0 0
0 0 2 0 0
0 0 2 0 0
50 0 1 0 0
7 0 2 0 0
0 -5 4 0 0
0 -5 1 0 0
0 -5 0 0 0
0 -4 0 0 0
28 -5 0 0 0
0 -4 0 0 0
0 0 11 0 0
0 0 0 1 1
0 -4 0 0 1
0 -4 0 0 0
0 -4 0 0 0
0 -4 0 0 0
0 0 1 0 0
11 0 0 0 0
0 0 1 0 0
0 0 10 0 0
0 0 67 0 0
0 2 147 0 0
0 -2 132 0 0
0 0 143 0 0
0 0 163 0 0
0 0 183 0 0
7 0 196 0 0
0 0 185 0 0
0 0 175 1 0
0 0 0 0 1
0 4 67 0 1
0 0 73 0 0
0 0 0 1 1
0 2 0 0 0
0 5 0 0 0
0 2 0 0 1
-4 4 0 0 0
0 0 0 0 1
0 -2 1 0 0
0 -4 0 0 0
0 -2 100 0 0
0 0 132 1 0
0 -4 1 0 1
0 -4 53 0 1
0 -4 2 0 1
0 -4 0 1 0
0 -2 0 1 0
4 -2 0 1 0
4 0 0 0 0
0 2 0 1 0
0 4 0 0 0
0 -4 0 1 0
0 2 0 0 0
0 -4 0 0 0
0 2 0 0 0
0 0 0 1 0
0 -2 0 0 0
0 4 0 0 0
0 0 0 1 0
0 4 0 1 0
0 -4 0 0 0
0 0 0 1 0
0 2 0 0 0
0 0 0 1 0
0 -2 0 0 0
0 -2 0 1 0
0 -4 0 0 0
0 -4 0 0 0
0 -2 0 1 0
0 -4 0 1 0
0 0 0 1 0
0 2 0 0 0
0 2 0 0 0
0 2 0 0 0
0 0 0 1 0
0 -2 0 0 0
0 2 0 0 0
0 -2 0 1 0
4 2 0 0 0
0 4 7 1 0
0 2 25 0 0
0 0 14 0 0
14 0 8 0 0
0 -4 0 0 0
4 -2 0 1 1
-7 -2 0 0 0
0 -4 0 0 0
14 -4 0 1 0
0 2 0 0 0
0 4 0 0 0
4 2 1 1 0
0 -4 0 1 0
0 2 0 0 0
0 -2 0 1 0
0 0 1 0 0
0 -2 0 1 0
0 2 0 0 0
0 0 0 1 0
0 0 1 0 0
0 2 0 0 0
0 0 0 1 0
0 -2 0 0 0
0 2 0 0 0
0 2 0 1 0
0 -2 0 0 0
0 2 0 0 0
0 0 0 1 0
0 0 0 1 0
0 0 0 1 0
0 -2 1 0 0
0 0 1 0 0
0 -4 0 0 0
0 -4 0 1 0
0 -2 0 1 0
0 2 1 0 0
0 2 1 0 0
4 2 0 0 0
0 2 0 0 0
0 0 1 0 0
0 0 3 0 1
0 -4 1 0 0
0 0 0 1 0
0 -4 1 1 0
0 -4 0 0 0
25 4 0 0 0
21 -2 0 1 0
4 0 1 0 0
28 2 0 0 0
18 -2 0 1 0
11 0 0 0 0
0 2 0 0 0
0 -4 0 1 0
25 2 0 1 0
4 -2 0 0 0
25 2 0 0 0
32 2 0 1 0
0 -4 0 0 0
0 2 0 0 0
0 2 0 1 0
0 -2 0 0 0
0 2 0 0 0
0 2 0 1 0
0 0 0 1 0
4 -2 0 0 1
0 -4 0 0 0
0 0 0 1 0
0 -4 0 1 0
0 0 0 1 0
0 4 0 0 0
0 4 0 0 0
28 2 1 0 0
28 -7 1 0 0
0 -35 0 0 0
0 -7 3 0 0
0 -28 0 0 0
0 -4 24 0 0
0 -2 0 0 0
0 -2 0 1 0
0 4 0 0 0
0 4 8 0 0
0 2 114 0 1
0 0 0 0 1
0 0 0 0 1
0 0 193 0 0
0 -2 29 0 1
0 4 157 0 0
0 0 177 0 0
0 2 0 0 1
4 2 185 0 0
0 -7 146 0 0
0 2 1 0 1
0 0 187 0 0
0 0 56 0 0
0 2 102 0 0
0 -2 183 0 0
4 -2 31 0 0
0 2 91 0 0
4 0 194 0 0
0 0 14 0 1
0 4 129 0 0
4 0 193 0 0
0 -2 0 0 1
0 2 118 0 0
4 -2 192 0 0
0 0 0 0 1
0 2 117 0 0
0 -2 194 0 0
4 -2 0 0 1
4 4 247 0 0
21 0 228 0 0
0 14 10 0 0
4 0 0 1 0
0 2 0 0 0
0 2 0 0 0
0 0 0 0 1
0 0 0 0 1
0 2 0 0 0
0 -2 0 0 0
4 -2 0 0 0
4 -2 0 0 0
4 0 0 0 0
68 0 0 0 0
25 0 0 0 0
28 0 38 0 0
28 0 47 1 0
0 -2 2 0 0
4 0 0 1 0
0 0 0 1 0
4 0 0 1 0
0 0 0 1 0
0 0 1 1 0
0 0 0 0 1
0 -2 0 0 0
0 0 0 1 0
0 0 0 1 0
0 0 1 0 0
0 0 5 0 1
0 0 0 0 1
0 4 0 0 1
0 4 0 0 1
7 0 163 0 0
28 -2 1 0 1
0 4 233 1 0
-18 4 84 0 0
0 2 0 0 0
0 7 0 1 0
0 4 0 0 0
0 4 0 0 0
0 2 0 0 1
0 4 0 0 0
0 -2 0 0 0
0 0 35 0 0
0 0 62 1 0
0 4 94 0 0
0 0 249 0 0
0 2 11 0 1
0 4 4 0 1
0 0 433 0 0
4 0 16 0 1
0 4 116 0 0
0 0 449 0 0
0 -2 19 0 0
0 0 20 0 1
0 0 409 0 0
0 -2 9 0 1
0 4 331 0 0
0 -2 419 0 0
0 2 430 0 0
0 -2 190 0 0
0 -2 15 0 0
0 0 95 0 0
0 2 51 0 0
4 2 0 0 1
0 0 44 0 0
0 0 50 0 0
0 0 41 0 0
4 0 1 0 1
0 0 0 0 1
0 0 9 0 0
0 0 8 1 1
0 0 0 0 1
0 0 0 0 1
0 0 53 0 0
0 0 12 0 0
0 0 1 0 1
4 0 42 0 0
0 0 7 0 1
0 0 6 0 0
0 -2 1 0 0
0 -2 0 0 1
0 2 0 0 1
0 2 0 0 0
0 -2 0 0 0
0 -2 0 0 0
4 -2 0 0 0
0 0 13 1 0
0 -4 0 1 0
0 -2 0 0 1
0 -2 0 0 0
0 -2 0 0 0
0 0 0 1 0
0 -2 0 1 0
0 -4 0 1 0
4 0 0 0 0
4 0 0 0 0
4 0 0 0 0
4 0 0 0 0
0 -4 0 1 0
4 0 0 0 0
0 2 1 1 0
4 0 0 0 0
4 2 2 0 0
0 -2 1 0 0
4 2 5 0 0
0 -2 35 1 0
4 0 0 1 0
0 -2 0 0 0
4 -2 0 1 0
0 -2 0 1 0
0 -2 0 1 0
0 -4 0 0 0
4 0 0 0 0
4 2 0 0 0
4 0 0 1 0
0 -4 0 1 0
4 0 0 0 0
11 -4 1 1 0
4 -2 0 0 0
32 2 1 0 0
25 2 1 1 0
0 -2 0 0 0
28 2 0 0 0
25 4 0 1 0
0 -4 1 0 0
28 2 0 0 0
0 0 0 1 0
0 -2 0 1 0
4 2 0 0 0
0 0 1 0 0
0 0 0 1 0
0 0 0 1 0
0 -4 0 0 0
0 -2 0 1 0
0 -4 0 1 0
0 -2 1 0 0
4 2 0 0 0
4 4 0 0 0
25 4 0 0 0
28 2 0 0 0
64 0 1 0 0
0 0 4 0 1
0 -4 0 0 0
0 -4 0 1 0
0 -4 0 1 0
0 -4 0 1 0
0 -4 1 0 0
0 2 0 0 0
0 0 1 1 0
0 0 1 0 0
0 0 0 1 0
0 0 0 1 0
0 -4 0 0 0
0 2 0 0 0
0 2 0 1 0
0 -2 1 0 0
0 4 0 0 0
0 -2 0 1 0
0 4 0 0 0
0 -4 0 1 0
0 -4 0 1 0
0 -4 0 1 0
0 0 0 0 1
0 -2 0 1 0
0 0 0 1 0
0 -4 0 0 0
0 2 0 0 0
0 2 0 0 0
0 2 0 0 0
0 0 0 1 0
0 -2 0 0 0
0 2 0 0 0
0 -2 0 1 0
0 2 0 0 0
0 2 9 1 0
0 -2 0 0 0
0 0 27 0 0
0 -7 0 0 0
0 -4 0 0 0
0 -4 24 0 0
0 2 42 0 0
0 4 0 0 0
0 4 0 0 0
0 4 0 0 0
0 0 2 0 0
50 0 6 0 0
64 0 41 0 0
57 0 208 0 0
0 2 114 0 0
0 2 173 0 0
0 0 97 0 0
0 0 118 0 0
0 0 124 0 0
0 -2 124 0 0
0 0 139 0 0
0 0 143 0 0
28 2 170 1 0
0 0 100 0 0
